{
    "name": "desktop-ads-trackers",
    "engines": {
        "23": {
            "url": "https://cdn.cliqz.com/adblocker/engines/0.7.0/442714c5d53196696247b9999851d611d3e02622a5ca4d0f7aec8b38719a300f/engine.bytes",
            "checksum": "442714c5d53196696247b9999851d611d3e02622a5ca4d0f7aec8b38719a300f"
        },
        "24": {
            "url": "https://cdn.cliqz.com/adblocker/engines/0.8.0/112b120def4d4315782272bded4ed2193bc35da524a4baef6ed7d7a64ceea88a/engine.bytes",
            "checksum": "112b120def4d4315782272bded4ed2193bc35da524a4baef6ed7d7a64ceea88a"
        },
        "25": {
            "url": "https://cdn.cliqz.com/adblocker/engines/0.9.0/ad64cdd01665370a0a22e33f10c921b489e0997f6cb99a55f1dafa74651931f8/engine.bytes",
            "checksum": "ad64cdd01665370a0a22e33f10c921b489e0997f6cb99a55f1dafa74651931f8"
        },
        "26": {
            "url": "https://cdn.cliqz.com/adblocker/engines/0.9.1/2b87ea7961b15cd466ce2a4ab36dccfd37b6360c72a34a78fadcc6d9de123877/engine.bytes",
            "checksum": "2b87ea7961b15cd466ce2a4ab36dccfd37b6360c72a34a78fadcc6d9de123877"
        },
        "28": {
            "url": "https://cdn.cliqz.com/adblocker/engines/0.10.0/03af6fa6d01b9dd32407fcb44a9c3347ffae81f5c6bf7844bd78a013285f7542/engine.bytes",
            "checksum": "03af6fa6d01b9dd32407fcb44a9c3347ffae81f5c6bf7844bd78a013285f7542"
        },
        "29": {
            "url": "https://cdn.cliqz.com/adblocker/engines/0.11.0/164b6c292bb5a1801d3326dd2b345b0ec14e50a47676be12a141f94d6b2383b7/engine.bytes",
            "checksum": "164b6c292bb5a1801d3326dd2b345b0ec14e50a47676be12a141f94d6b2383b7"
        },
        "30": {
            "url": "https://cdn.cliqz.com/adblocker/engines/0.12.0/478446cd6c2834ffddf04aeab0404ce4890f30db0d59f638713c5c7754126b90/engine.bytes",
            "checksum": "478446cd6c2834ffddf04aeab0404ce4890f30db0d59f638713c5c7754126b90"
        },
        "32": {
            "url": "https://cdn.cliqz.com/adblocker/engines/0.12.1/4b9c0f5b67adfae7d768a0ef36d1407298eda4beee62e9e2f8a8fe77da0bc606/engine.bytes",
            "checksum": "4b9c0f5b67adfae7d768a0ef36d1407298eda4beee62e9e2f8a8fe77da0bc606"
        },
        "33": {
            "url": "https://cdn.cliqz.com/adblocker/engines/0.13.0/c8a7aff21dfa1682dcb8e6de7242361da5a659864dd95a3a874cde3dfef09504/engine.bytes",
            "checksum": "c8a7aff21dfa1682dcb8e6de7242361da5a659864dd95a3a874cde3dfef09504"
        },
        "34": {
            "url": "https://cdn.cliqz.com/adblocker/engines/0.14.0/ef6d904687824c5474b7906a410a1e615fc1528524767472a803bd5733f8d57e/engine.bytes",
            "checksum": "ef6d904687824c5474b7906a410a1e615fc1528524767472a803bd5733f8d57e"
        },
        "35": {
            "url": "https://cdn.cliqz.com/adblocker/engines/1.0.0/f927e4c9ac2a67aae37e2659fb2b010cef28e6f81f02a9540bd0b02f5de26fab/engine.bytes",
            "checksum": "f927e4c9ac2a67aae37e2659fb2b010cef28e6f81f02a9540bd0b02f5de26fab"
        },
        "36": {
            "url": "https://cdn.cliqz.com/adblocker/engines/1.0.1/41d5bcdac9ebf5a35629df7b83f54a3e4981e84e68074c165debbbe94236972b/engine.bytes",
            "checksum": "41d5bcdac9ebf5a35629df7b83f54a3e4981e84e68074c165debbbe94236972b"
        },
        "37": {
            "url": "https://cdn.cliqz.com/adblocker/engines/1.1.0/678f76f65cb08528fd2c9bdcdc4aac80e91b6073aa5313733b47b3e37a0edf36/engine.bytes",
            "checksum": "678f76f65cb08528fd2c9bdcdc4aac80e91b6073aa5313733b47b3e37a0edf36"
        },
        "38": {
            "url": "https://cdn.cliqz.com/adblocker/engines/1.2.0/4897f2b4df1fa8d13d2b5ea3b645908f0446b026e64332857dc485b32041bf0f/engine.bytes",
            "checksum": "4897f2b4df1fa8d13d2b5ea3b645908f0446b026e64332857dc485b32041bf0f"
        },
        "39": {
            "url": "https://cdn.cliqz.com/adblocker/engines/1.3.0/e11b4e94f9a330dbf906687b98fef3fde7338ffe33924eaea3c0751ba400a15f/engine.bytes",
            "checksum": "e11b4e94f9a330dbf906687b98fef3fde7338ffe33924eaea3c0751ba400a15f"
        },
        "40": {
            "url": "https://cdn.cliqz.com/adblocker/engines/1.3.1/bceb19cd4a8ddd3ccde534941a152efc433e4f6353def221f5dc4b4323b1bd61/engine.bytes",
            "checksum": "bceb19cd4a8ddd3ccde534941a152efc433e4f6353def221f5dc4b4323b1bd61"
        },
        "41": {
            "url": "https://cdn.cliqz.com/adblocker/engines/1.4.0/0c0615c5f55790f6b65b1755645280dcd79cf273560764ed3ca66ab4e3f4ffd7/engine.bytes",
            "checksum": "0c0615c5f55790f6b65b1755645280dcd79cf273560764ed3ca66ab4e3f4ffd7"
        },
        "42": {
            "url": "https://cdn.cliqz.com/adblocker/engines/1.4.1/cf299fd662ad7dce4af97ec8ca0c8b3848a9040c7079bb2577732df031ed46f8/engine.bytes",
            "checksum": "cf299fd662ad7dce4af97ec8ca0c8b3848a9040c7079bb2577732df031ed46f8"
        },
        "43": {
            "url": "https://cdn.cliqz.com/adblocker/engines/1.4.18/afd9d2d884297e8a9a3c058c1cae9c5b0d99f29b03af8ef074004776b71a7b55/engine.bytes",
            "checksum": "afd9d2d884297e8a9a3c058c1cae9c5b0d99f29b03af8ef074004776b71a7b55"
        },
        "44": {
            "url": "https://cdn.cliqz.com/adblocker/engines/1.5.0/503e1fed3359b3e32eb1dc8e1f143c5d164276b42629cc0d384b5a127eb9fdc6/engine.bytes",
            "checksum": "503e1fed3359b3e32eb1dc8e1f143c5d164276b42629cc0d384b5a127eb9fdc6"
        },
        "45": {
            "url": "https://cdn.cliqz.com/adblocker/engines/1.6.2/75555555f4d4180eb19f8ef77f2549529cf800627eeffba0c5a3077a6cb06c3c/engine.bytes",
            "checksum": "75555555f4d4180eb19f8ef77f2549529cf800627eeffba0c5a3077a6cb06c3c"
        },
        "46": {
            "url": "https://cdn.cliqz.com/adblocker/engines/1.7.1/2e8a1a76179c8689441aed7e60972d968ba88fbbab13ca2b49ba559b996c9f7d/engine.bytes",
            "checksum": "2e8a1a76179c8689441aed7e60972d968ba88fbbab13ca2b49ba559b996c9f7d"
        },
        "47": {
            "url": "https://cdn.cliqz.com/adblocker/engines/1.8.3/0b29816c42dde64340c303e62a61b416af7899191ea4f332486f5dd0c08764eb/engine.bytes",
            "checksum": "0b29816c42dde64340c303e62a61b416af7899191ea4f332486f5dd0c08764eb"
        },
        "49": {
            "url": "https://cdn.cliqz.com/adblocker/engines/1.9.1/708f5f207067ecc774207cc69bbc43fb82db591dc45fc3035b420ea5ec6f5cfb/engine.bytes",
            "checksum": "708f5f207067ecc774207cc69bbc43fb82db591dc45fc3035b420ea5ec6f5cfb"
        },
        "51": {
            "url": "https://cdn.cliqz.com/adblocker/engines/1.9.2/39050c354913a17256ac2c3edbf49990fa32bad8d7e1639ea2ba6426bff14a30/engine.bytes",
            "checksum": "39050c354913a17256ac2c3edbf49990fa32bad8d7e1639ea2ba6426bff14a30"
        },
        "78": {
            "url": "https://cdn.cliqz.com/adblocker/engines/1.10.0/fa0ca9c055b7013265983c8e4cc4d3de548060104295d3824fce237f101ee457/engine.bytes",
            "checksum": "fa0ca9c055b7013265983c8e4cc4d3de548060104295d3824fce237f101ee457"
        },
        "79": {
            "url": "https://cdn.cliqz.com/adblocker/engines/1.11.0/4e6aaf11763c92dc3dbf40b23512814be47e8bc5c0cd7a3f2b7ee1fc8f37c770/engine.bytes",
            "checksum": "4e6aaf11763c92dc3dbf40b23512814be47e8bc5c0cd7a3f2b7ee1fc8f37c770"
        },
        "80": {
            "url": "https://cdn.cliqz.com/adblocker/engines/1.12.0/885d19c741b0e77c93cfcbb3ac53c84c91e368f20f80acc12efbd9b034800809/engine.bytes",
            "checksum": "885d19c741b0e77c93cfcbb3ac53c84c91e368f20f80acc12efbd9b034800809"
        },
        "81": {
            "url": "https://cdn.cliqz.com/adblocker/engines/1.12.1/ddd19c97ccfd97fa60899cc722d7162e702a738df89172ba3e8f16e23c28d5c0/engine.bytes",
            "checksum": "ddd19c97ccfd97fa60899cc722d7162e702a738df89172ba3e8f16e23c28d5c0"
        },
        "82": {
            "url": "https://cdn.cliqz.com/adblocker/engines/1.12.2/f56a2d9dbf8c15134eb053e55bc0a2142f0c0355659ece472e5e232a5fcf88a7/engine.bytes",
            "checksum": "f56a2d9dbf8c15134eb053e55bc0a2142f0c0355659ece472e5e232a5fcf88a7"
        },
        "83": {
            "url": "https://cdn.cliqz.com/adblocker/engines/1.12.3/08501580c00914e34201f815acd36a89d8b83d32521f5406d0c2a96e63818949/engine.bytes",
            "checksum": "08501580c00914e34201f815acd36a89d8b83d32521f5406d0c2a96e63818949"
        },
        "85": {
            "url": "https://cdn.cliqz.com/adblocker/engines/1.13.0/045e62ac6b3f3be0dec6863b1ec1cd7f4d8c479a8ad7488eaaad4a49f4b58b28/engine.bytes",
            "checksum": "045e62ac6b3f3be0dec6863b1ec1cd7f4d8c479a8ad7488eaaad4a49f4b58b28"
        },
        "89": {
            "url": "https://cdn.cliqz.com/adblocker/engines/1.13.1/1587969a139ec2b87f0c25b56fd9f91e817856c9140be815f8333c5441d7e5a9/engine.bytes",
            "checksum": "1587969a139ec2b87f0c25b56fd9f91e817856c9140be815f8333c5441d7e5a9"
        },
        "95": {
            "url": "https://cdn.cliqz.com/adblocker/engines/1.14.0/035372c050a7964818ddfe9048d83eaab7812b6f2798cd9aae651e954a952578/engine.bytes",
            "checksum": "035372c050a7964818ddfe9048d83eaab7812b6f2798cd9aae651e954a952578"
        },
        "96": {
            "url": "https://cdn.cliqz.com/adblocker/engines/1.14.1-canary.749.a40c321547185bcf79ce33e7c3dbce4252781c7b.0/e81ba51379480000e59d26ad2093996a1f9d4038969d257eca373a70c9a80c24/engine.bytes",
            "checksum": "e81ba51379480000e59d26ad2093996a1f9d4038969d257eca373a70c9a80c24"
        },
        "97": {
            "url": "https://cdn.cliqz.com/adblocker/engines/1.14.1/9e370ef43d4cda84e845776df55b5a00a5ab05453f0c862f2023d2cc2284c776/engine.bytes",
            "checksum": "9e370ef43d4cda84e845776df55b5a00a5ab05453f0c862f2023d2cc2284c776"
        },
        "109": {
            "url": "https://cdn.cliqz.com/adblocker/engines/1.14.2/f429aefb8bcd4a92b83839551d3b9d68482de2f97c53774ea4fee522ec8b35c2/engine.bytes",
            "checksum": "f429aefb8bcd4a92b83839551d3b9d68482de2f97c53774ea4fee522ec8b35c2"
        },
        "121": {
            "url": "https://cdn.cliqz.com/adblocker/engines/1.14.3/6ecbc2f0846943114b33d5f6875a68d9c74bf3cabf7671b4466b8ec8b715c432/engine.bytes",
            "checksum": "6ecbc2f0846943114b33d5f6875a68d9c74bf3cabf7671b4466b8ec8b715c432"
        },
        "123": {
            "url": "https://cdn.cliqz.com/adblocker/engines/1.14.4/1009f3d0607f9733ae42a0c854f10fa3eb0baa41ea6fcdb716499bad3e4d45ab/engine.bytes",
            "checksum": "1009f3d0607f9733ae42a0c854f10fa3eb0baa41ea6fcdb716499bad3e4d45ab"
        },
        "138": {
            "url": "https://cdn.cliqz.com/adblocker/engines/1.15.0/67e820a7abf1fe3e1588779f934ffbc961ce9e006ed76edf9a6d6c88659e1597/engine.bytes",
            "checksum": "67e820a7abf1fe3e1588779f934ffbc961ce9e006ed76edf9a6d6c88659e1597"
        },
        "140": {
            "url": "https://cdn.cliqz.com/adblocker/engines/1.15.1/b6f262459497157b3dd41e6ab334a3bde752ff9dae15deea51731faf0002dd6d/engine.bytes",
            "checksum": "b6f262459497157b3dd41e6ab334a3bde752ff9dae15deea51731faf0002dd6d"
        },
        "156": {
            "url": "https://cdn.cliqz.com/adblocker/engines/1.16.0/9c0d7a954438595aa220992f33d3d71535eb54e4729be7d703fc6b422e70dc6d/engine.bytes",
            "checksum": "9c0d7a954438595aa220992f33d3d71535eb54e4729be7d703fc6b422e70dc6d"
        },
        "183": {
            "url": "https://cdn.cliqz.com/adblocker/engines/1.16.1/c504058c6c08db6b8d37bc3aeec1c8e34066e1cf7fdf9e7952c21fead7c0c9b7/engine.bytes",
            "checksum": "c504058c6c08db6b8d37bc3aeec1c8e34066e1cf7fdf9e7952c21fead7c0c9b7"
        },
        "187": {
            "url": "https://cdn.cliqz.com/adblocker/engines/1.17.0/c4b727b3bcb77aebdc2776a079cd1b5d004bfb1c17a2709114391af4c81e7d52/engine.bytes",
            "checksum": "c4b727b3bcb77aebdc2776a079cd1b5d004bfb1c17a2709114391af4c81e7d52"
        },
        "230": {
            "url": "https://cdn.cliqz.com/adblocker/engines/1.18.0/dd709a62720e0cb4c8ab097aae14989102c14f4563b7d919b4a5fd6ffa9ae0ae/engine.bytes",
            "checksum": "dd709a62720e0cb4c8ab097aae14989102c14f4563b7d919b4a5fd6ffa9ae0ae"
        },
        "233": {
            "url": "https://cdn.cliqz.com/adblocker/engines/1.18.2/63c836d2838f2b546b55c5d4248ef3dc5b388fc2f24e2ef6cd98b838b009b0a2/engine.bytes",
            "checksum": "63c836d2838f2b546b55c5d4248ef3dc5b388fc2f24e2ef6cd98b838b009b0a2"
        },
        "249": {
            "url": "https://cdn.cliqz.com/adblocker/engines/1.18.3/0b13bca3fa0e935d58ad59bba4a509cacf9c8fb717212047d14b519269421a8d/engine.bytes",
            "checksum": "0b13bca3fa0e935d58ad59bba4a509cacf9c8fb717212047d14b519269421a8d"
        },
        "288": {
            "url": "https://cdn.cliqz.com/adblocker/engines/1.18.4/2e805bf7163c94c179ca2c605bed47a18726946a645d76fe52392c11d548e340/engine.bytes",
            "checksum": "2e805bf7163c94c179ca2c605bed47a18726946a645d76fe52392c11d548e340"
        },
        "297": {
            "url": "https://cdn.cliqz.com/adblocker/engines/1.18.5/e0ddbd9fabc9e1d61776357381ae91d7f24c4703f1ada9e788c935996b65ed5f/engine.bytes",
            "checksum": "e0ddbd9fabc9e1d61776357381ae91d7f24c4703f1ada9e788c935996b65ed5f"
        }
    },
    "lists": {
        "easylist": {
            "url": "https://cdn.cliqz.com/adblocker/resources/easylist/2ae8e1b4112ba8551b23078336ddfee6a2d41be432fcc5984412032364396201/list.txt",
            "checksum": "2ae8e1b4112ba8551b23078336ddfee6a2d41be432fcc5984412032364396201",
            "diffs": {
                "c887672f8de612247b89a3386f9b4a70b1764b07292cd21c7f82800a15b7fe4f": "https://cdn.cliqz.com/adblocker/resources/easylist/2ae8e1b4112ba8551b23078336ddfee6a2d41be432fcc5984412032364396201/diffs/c887672f8de612247b89a3386f9b4a70b1764b07292cd21c7f82800a15b7fe4f",
                "4664404d62cb8c78e67da6b15a06ef27ba845468797ef4ae95c1e51f1fb5854f": "https://cdn.cliqz.com/adblocker/resources/easylist/2ae8e1b4112ba8551b23078336ddfee6a2d41be432fcc5984412032364396201/diffs/4664404d62cb8c78e67da6b15a06ef27ba845468797ef4ae95c1e51f1fb5854f",
                "0900fe7dbcfc5cf93ab0670e73f2ebd3dc219e67f08bcce558a1a85c52a7e89a": "https://cdn.cliqz.com/adblocker/resources/easylist/2ae8e1b4112ba8551b23078336ddfee6a2d41be432fcc5984412032364396201/diffs/0900fe7dbcfc5cf93ab0670e73f2ebd3dc219e67f08bcce558a1a85c52a7e89a",
                "8772bed079521660e93390c2377a8fd789a17b73d6fcd3b18605b552ec28f290": "https://cdn.cliqz.com/adblocker/resources/easylist/2ae8e1b4112ba8551b23078336ddfee6a2d41be432fcc5984412032364396201/diffs/8772bed079521660e93390c2377a8fd789a17b73d6fcd3b18605b552ec28f290",
                "0b92f228c3ecf59cb437acc695f9dfefbf0dfa60789f4a4bf0199b12f1052567": "https://cdn.cliqz.com/adblocker/resources/easylist/2ae8e1b4112ba8551b23078336ddfee6a2d41be432fcc5984412032364396201/diffs/0b92f228c3ecf59cb437acc695f9dfefbf0dfa60789f4a4bf0199b12f1052567",
                "cd261c60a6cd08fc79ac7037e2de1f0096151e30586fb872ac1ea8acfbcbd821": "https://cdn.cliqz.com/adblocker/resources/easylist/2ae8e1b4112ba8551b23078336ddfee6a2d41be432fcc5984412032364396201/diffs/cd261c60a6cd08fc79ac7037e2de1f0096151e30586fb872ac1ea8acfbcbd821",
                "075ca0957fb4245f55605f0db1a6f0748ef8317aa94ccddc151c5daac7651424": "https://cdn.cliqz.com/adblocker/resources/easylist/2ae8e1b4112ba8551b23078336ddfee6a2d41be432fcc5984412032364396201/diffs/075ca0957fb4245f55605f0db1a6f0748ef8317aa94ccddc151c5daac7651424"
            }
        },
        "plowe-0": {
            "url": "https://cdn.cliqz.com/adblocker/resources/plowe-0/8723d3b6e34ef7ddb17ce6b30a0f27e59df4165822e97a2b8d725619d0899de3/list.txt",
            "checksum": "8723d3b6e34ef7ddb17ce6b30a0f27e59df4165822e97a2b8d725619d0899de3",
            "diffs": {
                "4689525bb94e8bc487527374295456ed2a13603cd5092a8876b58e3389a2619c": "https://cdn.cliqz.com/adblocker/resources/plowe-0/8723d3b6e34ef7ddb17ce6b30a0f27e59df4165822e97a2b8d725619d0899de3/diffs/4689525bb94e8bc487527374295456ed2a13603cd5092a8876b58e3389a2619c",
                "0ef012a9b293c523893a9cc0c48c729e40b1be907a644dbc92b81daf0ca175f1": "https://cdn.cliqz.com/adblocker/resources/plowe-0/8723d3b6e34ef7ddb17ce6b30a0f27e59df4165822e97a2b8d725619d0899de3/diffs/0ef012a9b293c523893a9cc0c48c729e40b1be907a644dbc92b81daf0ca175f1",
                "55e4f7a04031cae54e1a6af74aa5432174d7d094d7b117e0a2e1c7335be266cd": "https://cdn.cliqz.com/adblocker/resources/plowe-0/8723d3b6e34ef7ddb17ce6b30a0f27e59df4165822e97a2b8d725619d0899de3/diffs/55e4f7a04031cae54e1a6af74aa5432174d7d094d7b117e0a2e1c7335be266cd",
                "4a08b6f5eb92809ec7ffd8263227653bf645f3e65a51cfe4f69dfc9a1bf85b44": "https://cdn.cliqz.com/adblocker/resources/plowe-0/8723d3b6e34ef7ddb17ce6b30a0f27e59df4165822e97a2b8d725619d0899de3/diffs/4a08b6f5eb92809ec7ffd8263227653bf645f3e65a51cfe4f69dfc9a1bf85b44",
                "caa557de49e7806fa49c216d0cf804163d7f191badcdfa53033165cc4958ef06": "https://cdn.cliqz.com/adblocker/resources/plowe-0/8723d3b6e34ef7ddb17ce6b30a0f27e59df4165822e97a2b8d725619d0899de3/diffs/caa557de49e7806fa49c216d0cf804163d7f191badcdfa53033165cc4958ef06",
                "09fda4660fcba1931481d1d9e5dbe25c7aba25fe44f9d4bd8930d93d5c245a8e": "https://cdn.cliqz.com/adblocker/resources/plowe-0/8723d3b6e34ef7ddb17ce6b30a0f27e59df4165822e97a2b8d725619d0899de3/diffs/09fda4660fcba1931481d1d9e5dbe25c7aba25fe44f9d4bd8930d93d5c245a8e",
                "2c3e31abb8445dd73bcf22985964badd8574415006923f6386d4e542db53c774": "https://cdn.cliqz.com/adblocker/resources/plowe-0/8723d3b6e34ef7ddb17ce6b30a0f27e59df4165822e97a2b8d725619d0899de3/diffs/2c3e31abb8445dd73bcf22985964badd8574415006923f6386d4e542db53c774"
            }
        },
        "cliqz-filters": {
            "url": "https://cdn.cliqz.com/adblocker/resources/cliqz-filters/fa6066266d6cb63b29183cc23728dc3a57f131a10e0ec1380f49ee64ed1cb228/list.txt",
            "checksum": "fa6066266d6cb63b29183cc23728dc3a57f131a10e0ec1380f49ee64ed1cb228",
            "diffs": {
                "e8cb433a9fbd0de4ddfeeed4067d3e0c58bd58af2df7ab4e81b6a2cee54f59b9": "https://cdn.cliqz.com/adblocker/resources/cliqz-filters/fa6066266d6cb63b29183cc23728dc3a57f131a10e0ec1380f49ee64ed1cb228/diffs/e8cb433a9fbd0de4ddfeeed4067d3e0c58bd58af2df7ab4e81b6a2cee54f59b9",
                "a0f4bc08f6b35170477aee1f5049be6b35a1e582d83325d3d758711c487ad5c3": "https://cdn.cliqz.com/adblocker/resources/cliqz-filters/fa6066266d6cb63b29183cc23728dc3a57f131a10e0ec1380f49ee64ed1cb228/diffs/a0f4bc08f6b35170477aee1f5049be6b35a1e582d83325d3d758711c487ad5c3",
                "f3d1934b7dd035d5c19ff5d89e0ae0eae4d521ef53de5e4ef6a686008f80040f": "https://cdn.cliqz.com/adblocker/resources/cliqz-filters/fa6066266d6cb63b29183cc23728dc3a57f131a10e0ec1380f49ee64ed1cb228/diffs/f3d1934b7dd035d5c19ff5d89e0ae0eae4d521ef53de5e4ef6a686008f80040f",
                "50b46fbf28896b63e01e74e227243ec5bcb9b211365b0d0b727b2a83f77298e6": "https://cdn.cliqz.com/adblocker/resources/cliqz-filters/fa6066266d6cb63b29183cc23728dc3a57f131a10e0ec1380f49ee64ed1cb228/diffs/50b46fbf28896b63e01e74e227243ec5bcb9b211365b0d0b727b2a83f77298e6",
                "11d07e887a48c0fd545727d4adbd6df720a853a964f4ac0d9c28193bd8eb6d5a": "https://cdn.cliqz.com/adblocker/resources/cliqz-filters/fa6066266d6cb63b29183cc23728dc3a57f131a10e0ec1380f49ee64ed1cb228/diffs/11d07e887a48c0fd545727d4adbd6df720a853a964f4ac0d9c28193bd8eb6d5a",
                "c6ee3ba23ab7e04de813fb0206eecb7d5587a358548786413e81130644c9b04f": "https://cdn.cliqz.com/adblocker/resources/cliqz-filters/fa6066266d6cb63b29183cc23728dc3a57f131a10e0ec1380f49ee64ed1cb228/diffs/c6ee3ba23ab7e04de813fb0206eecb7d5587a358548786413e81130644c9b04f",
                "75c2fd5efce022362d63988cfa820086112ee9e1fa0da22930fc753f2cdf0e35": "https://cdn.cliqz.com/adblocker/resources/cliqz-filters/fa6066266d6cb63b29183cc23728dc3a57f131a10e0ec1380f49ee64ed1cb228/diffs/75c2fd5efce022362d63988cfa820086112ee9e1fa0da22930fc753f2cdf0e35"
            }
        },
        "whotracksme-filters": {
            "url": "https://cdn.cliqz.com/adblocker/resources/whotracksme-filters/38ec9e885a0708245c4d6a44755b511aeacc6c9c76d991f1ac040ad7debcc5ee/list.txt",
            "checksum": "38ec9e885a0708245c4d6a44755b511aeacc6c9c76d991f1ac040ad7debcc5ee",
            "diffs": {
                "dd29d82c9c8fb22e2d95194ec1f583e0a717e5f0f0e771c6aaf562876956168f": "https://cdn.cliqz.com/adblocker/resources/whotracksme-filters/38ec9e885a0708245c4d6a44755b511aeacc6c9c76d991f1ac040ad7debcc5ee/diffs/dd29d82c9c8fb22e2d95194ec1f583e0a717e5f0f0e771c6aaf562876956168f"
            }
        },
        "ublock-abuse": {
            "url": "https://cdn.cliqz.com/adblocker/resources/ublock-abuse/fcc36338269784988449d986fb4491374c5f36dec3f525bfee0d35bf5a2a16b4/list.txt",
            "checksum": "fcc36338269784988449d986fb4491374c5f36dec3f525bfee0d35bf5a2a16b4",
            "diffs": {
                "f8dabf2456d7d232388df78c4331b3e59a18ef82940c64802d37bae59b0ee801": "https://cdn.cliqz.com/adblocker/resources/ublock-abuse/fcc36338269784988449d986fb4491374c5f36dec3f525bfee0d35bf5a2a16b4/diffs/f8dabf2456d7d232388df78c4331b3e59a18ef82940c64802d37bae59b0ee801",
                "843adecb0240ab5bcded8ec25c3d5df0e25d2b01dd832d8ff3a3c655645d22a2": "https://cdn.cliqz.com/adblocker/resources/ublock-abuse/fcc36338269784988449d986fb4491374c5f36dec3f525bfee0d35bf5a2a16b4/diffs/843adecb0240ab5bcded8ec25c3d5df0e25d2b01dd832d8ff3a3c655645d22a2",
                "e4d09446295fe95721051dfe17704f6ddc4de618cd9a0e6c909e506589a8b763": "https://cdn.cliqz.com/adblocker/resources/ublock-abuse/fcc36338269784988449d986fb4491374c5f36dec3f525bfee0d35bf5a2a16b4/diffs/e4d09446295fe95721051dfe17704f6ddc4de618cd9a0e6c909e506589a8b763",
                "57c0e2ab20924686d1a436e0f8106c4e14f0bc7037ca93f602b1c55c7cd5e453": "https://cdn.cliqz.com/adblocker/resources/ublock-abuse/fcc36338269784988449d986fb4491374c5f36dec3f525bfee0d35bf5a2a16b4/diffs/57c0e2ab20924686d1a436e0f8106c4e14f0bc7037ca93f602b1c55c7cd5e453",
                "2b7d5d51a921c1436b5bd8b9c33fce76267ab28019bb752279ad7a9255d2ddbb": "https://cdn.cliqz.com/adblocker/resources/ublock-abuse/fcc36338269784988449d986fb4491374c5f36dec3f525bfee0d35bf5a2a16b4/diffs/2b7d5d51a921c1436b5bd8b9c33fce76267ab28019bb752279ad7a9255d2ddbb",
                "7648feb62cdd76a8f94f4e3c20abcfd6d0c17232bd268f17bfec319a4e6285e6": "https://cdn.cliqz.com/adblocker/resources/ublock-abuse/fcc36338269784988449d986fb4491374c5f36dec3f525bfee0d35bf5a2a16b4/diffs/7648feb62cdd76a8f94f4e3c20abcfd6d0c17232bd268f17bfec319a4e6285e6",
                "d007306e38bae93e7c6ac22d9807a15926536fa35bd26bc9f5c4367b376b9cd6": "https://cdn.cliqz.com/adblocker/resources/ublock-abuse/fcc36338269784988449d986fb4491374c5f36dec3f525bfee0d35bf5a2a16b4/diffs/d007306e38bae93e7c6ac22d9807a15926536fa35bd26bc9f5c4367b376b9cd6"
            }
        },
        "ublock-annoyances": {
            "url": "https://cdn.cliqz.com/adblocker/resources/ublock-annoyances/a1b7648b2108e4c4ad0a745176f7f7235047d385f0649aa2454e15c15ef8aa12/list.txt",
            "checksum": "a1b7648b2108e4c4ad0a745176f7f7235047d385f0649aa2454e15c15ef8aa12",
            "diffs": {
                "02b5c092395b70639b085fa840476fa3122a75e8897b28af944ee10f8295fdf3": "https://cdn.cliqz.com/adblocker/resources/ublock-annoyances/a1b7648b2108e4c4ad0a745176f7f7235047d385f0649aa2454e15c15ef8aa12/diffs/02b5c092395b70639b085fa840476fa3122a75e8897b28af944ee10f8295fdf3",
                "8aacf69b51a15bba34ce7c4040830b8326952b645d378f6fbc48d85d9cb29d46": "https://cdn.cliqz.com/adblocker/resources/ublock-annoyances/a1b7648b2108e4c4ad0a745176f7f7235047d385f0649aa2454e15c15ef8aa12/diffs/8aacf69b51a15bba34ce7c4040830b8326952b645d378f6fbc48d85d9cb29d46",
                "80c67008fcf7b1242ba18bf78253d8be8f4c55d6dba556e2823acd5c7408fd2e": "https://cdn.cliqz.com/adblocker/resources/ublock-annoyances/a1b7648b2108e4c4ad0a745176f7f7235047d385f0649aa2454e15c15ef8aa12/diffs/80c67008fcf7b1242ba18bf78253d8be8f4c55d6dba556e2823acd5c7408fd2e",
                "e01fcba0ec6d770e10c9f2136bb857fc5b3e5dbed2bf9a3152610e0c50e17fc3": "https://cdn.cliqz.com/adblocker/resources/ublock-annoyances/a1b7648b2108e4c4ad0a745176f7f7235047d385f0649aa2454e15c15ef8aa12/diffs/e01fcba0ec6d770e10c9f2136bb857fc5b3e5dbed2bf9a3152610e0c50e17fc3",
                "b08ec2275614c0d326b204cf166eb96e175057c6571f77c748d3ef48db7a7e17": "https://cdn.cliqz.com/adblocker/resources/ublock-annoyances/a1b7648b2108e4c4ad0a745176f7f7235047d385f0649aa2454e15c15ef8aa12/diffs/b08ec2275614c0d326b204cf166eb96e175057c6571f77c748d3ef48db7a7e17",
                "a895a325b25fb39210e0c6c9e0e14a64620387a4fa9b028e2cfafb5e5aad7feb": "https://cdn.cliqz.com/adblocker/resources/ublock-annoyances/a1b7648b2108e4c4ad0a745176f7f7235047d385f0649aa2454e15c15ef8aa12/diffs/a895a325b25fb39210e0c6c9e0e14a64620387a4fa9b028e2cfafb5e5aad7feb",
                "deb781b4376011dcd9792a376b12aa74fa8d47cfa49d74c95dfc35cffac09752": "https://cdn.cliqz.com/adblocker/resources/ublock-annoyances/a1b7648b2108e4c4ad0a745176f7f7235047d385f0649aa2454e15c15ef8aa12/diffs/deb781b4376011dcd9792a376b12aa74fa8d47cfa49d74c95dfc35cffac09752"
            }
        },
        "ublock-badware": {
            "url": "https://cdn.cliqz.com/adblocker/resources/ublock-badware/0ee19870f391723ae2831a9f1b8ec64f39483e21ca036ff1e4f85daa7a1b0dd6/list.txt",
            "checksum": "0ee19870f391723ae2831a9f1b8ec64f39483e21ca036ff1e4f85daa7a1b0dd6",
            "diffs": {
                "c202efac789e94fd27d5b4867a853a580bea82e449884853b1374c9b63edb622": "https://cdn.cliqz.com/adblocker/resources/ublock-badware/0ee19870f391723ae2831a9f1b8ec64f39483e21ca036ff1e4f85daa7a1b0dd6/diffs/c202efac789e94fd27d5b4867a853a580bea82e449884853b1374c9b63edb622",
                "52adeeaf7772c1b1497e2b062d7d9bcd8c9aac378dbff8331f3bf14809593639": "https://cdn.cliqz.com/adblocker/resources/ublock-badware/0ee19870f391723ae2831a9f1b8ec64f39483e21ca036ff1e4f85daa7a1b0dd6/diffs/52adeeaf7772c1b1497e2b062d7d9bcd8c9aac378dbff8331f3bf14809593639",
                "e0bde1c9658897a0cf3e96165306edecb740ebdf56bd30b48e16e8ec567a6a33": "https://cdn.cliqz.com/adblocker/resources/ublock-badware/0ee19870f391723ae2831a9f1b8ec64f39483e21ca036ff1e4f85daa7a1b0dd6/diffs/e0bde1c9658897a0cf3e96165306edecb740ebdf56bd30b48e16e8ec567a6a33",
                "3b116570b728dfb2473bd316498b31e0da9adc8e146d048b33c45b34fc5d6981": "https://cdn.cliqz.com/adblocker/resources/ublock-badware/0ee19870f391723ae2831a9f1b8ec64f39483e21ca036ff1e4f85daa7a1b0dd6/diffs/3b116570b728dfb2473bd316498b31e0da9adc8e146d048b33c45b34fc5d6981",
                "6d2a586d25dfc366b36526b7f6f24899b5bd232579036275fc244ebe56c131e6": "https://cdn.cliqz.com/adblocker/resources/ublock-badware/0ee19870f391723ae2831a9f1b8ec64f39483e21ca036ff1e4f85daa7a1b0dd6/diffs/6d2a586d25dfc366b36526b7f6f24899b5bd232579036275fc244ebe56c131e6",
                "b61e8a6b9a4556940c513611c8f587294d75180646da6f6203cbd9e137d8db96": "https://cdn.cliqz.com/adblocker/resources/ublock-badware/0ee19870f391723ae2831a9f1b8ec64f39483e21ca036ff1e4f85daa7a1b0dd6/diffs/b61e8a6b9a4556940c513611c8f587294d75180646da6f6203cbd9e137d8db96",
                "f66a4d6f6b22c41bf5b7bca6c2921570703684a86df722c60a2feac8e3411464": "https://cdn.cliqz.com/adblocker/resources/ublock-badware/0ee19870f391723ae2831a9f1b8ec64f39483e21ca036ff1e4f85daa7a1b0dd6/diffs/f66a4d6f6b22c41bf5b7bca6c2921570703684a86df722c60a2feac8e3411464"
            }
        },
        "ublock-filters": {
            "url": "https://cdn.cliqz.com/adblocker/resources/ublock-filters/d71f2f663356dd6daab25b66fe7c18fbc6d4b6333eadf17af9c84a06c2e5fb2c/list.txt",
            "checksum": "d71f2f663356dd6daab25b66fe7c18fbc6d4b6333eadf17af9c84a06c2e5fb2c",
            "diffs": {
                "e246032694c0e53d8d480a158fdb96a87f62d8d3812ab3ba58e0b9961d7cc9d5": "https://cdn.cliqz.com/adblocker/resources/ublock-filters/d71f2f663356dd6daab25b66fe7c18fbc6d4b6333eadf17af9c84a06c2e5fb2c/diffs/e246032694c0e53d8d480a158fdb96a87f62d8d3812ab3ba58e0b9961d7cc9d5",
                "50d669d7ce43933e7a311d22af341d0f65104ec624f1e538c6b422bfaa4807b7": "https://cdn.cliqz.com/adblocker/resources/ublock-filters/d71f2f663356dd6daab25b66fe7c18fbc6d4b6333eadf17af9c84a06c2e5fb2c/diffs/50d669d7ce43933e7a311d22af341d0f65104ec624f1e538c6b422bfaa4807b7",
                "8cf323da742cf649b0e39481cedfdf6edabc34a06633a10cf05d441ae2b40e67": "https://cdn.cliqz.com/adblocker/resources/ublock-filters/d71f2f663356dd6daab25b66fe7c18fbc6d4b6333eadf17af9c84a06c2e5fb2c/diffs/8cf323da742cf649b0e39481cedfdf6edabc34a06633a10cf05d441ae2b40e67",
                "337b5392570c5a35a30079f2ba44867df0b46ded9e3c4f52f898dbe8f020f24d": "https://cdn.cliqz.com/adblocker/resources/ublock-filters/d71f2f663356dd6daab25b66fe7c18fbc6d4b6333eadf17af9c84a06c2e5fb2c/diffs/337b5392570c5a35a30079f2ba44867df0b46ded9e3c4f52f898dbe8f020f24d",
                "d2081bbb5cc2284f3484f284a4ee22a0068481d6be95793d1572c5d6cfb308d3": "https://cdn.cliqz.com/adblocker/resources/ublock-filters/d71f2f663356dd6daab25b66fe7c18fbc6d4b6333eadf17af9c84a06c2e5fb2c/diffs/d2081bbb5cc2284f3484f284a4ee22a0068481d6be95793d1572c5d6cfb308d3",
                "08e6f0e6737ec726d73dd09633b1a4318a42f947e5e93425e3a6fd38960322ad": "https://cdn.cliqz.com/adblocker/resources/ublock-filters/d71f2f663356dd6daab25b66fe7c18fbc6d4b6333eadf17af9c84a06c2e5fb2c/diffs/08e6f0e6737ec726d73dd09633b1a4318a42f947e5e93425e3a6fd38960322ad",
                "88a4c672c50e46d44c804fd4f01d6c8f973adac08a44d95bf89d8cfee7c1f013": "https://cdn.cliqz.com/adblocker/resources/ublock-filters/d71f2f663356dd6daab25b66fe7c18fbc6d4b6333eadf17af9c84a06c2e5fb2c/diffs/88a4c672c50e46d44c804fd4f01d6c8f973adac08a44d95bf89d8cfee7c1f013"
            }
        },
        "ublock-filters-2020": {
            "url": "https://cdn.cliqz.com/adblocker/resources/ublock-filters-2020/357b260997b63bc9153e566acfbf129c46cd50cfa87891cb842638de7aa9cabf/list.txt",
            "checksum": "357b260997b63bc9153e566acfbf129c46cd50cfa87891cb842638de7aa9cabf",
            "diffs": {
                "592225161955a0b3388cfb834761d41de1f1bf1f92334f1894b9d69b02bacc17": "https://cdn.cliqz.com/adblocker/resources/ublock-filters-2020/357b260997b63bc9153e566acfbf129c46cd50cfa87891cb842638de7aa9cabf/diffs/592225161955a0b3388cfb834761d41de1f1bf1f92334f1894b9d69b02bacc17",
                "917f85e8f153bba361d93fd6273168925e293b6d96c54179ab34e019ab62c011": "https://cdn.cliqz.com/adblocker/resources/ublock-filters-2020/357b260997b63bc9153e566acfbf129c46cd50cfa87891cb842638de7aa9cabf/diffs/917f85e8f153bba361d93fd6273168925e293b6d96c54179ab34e019ab62c011",
                "eb5924ca2935e6d3d9e83ea7a3c9a1cb6aeb8b5986044b9e418846b069d9e764": "https://cdn.cliqz.com/adblocker/resources/ublock-filters-2020/357b260997b63bc9153e566acfbf129c46cd50cfa87891cb842638de7aa9cabf/diffs/eb5924ca2935e6d3d9e83ea7a3c9a1cb6aeb8b5986044b9e418846b069d9e764",
                "2dabbbdf0c40f19777d7a08fb17ffa5b6f88537e7ee33c1e75c7d235ceeffca4": "https://cdn.cliqz.com/adblocker/resources/ublock-filters-2020/357b260997b63bc9153e566acfbf129c46cd50cfa87891cb842638de7aa9cabf/diffs/2dabbbdf0c40f19777d7a08fb17ffa5b6f88537e7ee33c1e75c7d235ceeffca4",
                "c85e02275f1a4362989bac3bdd6cfa5215d9d3ddc9625eec58dd36b3df2628ad": "https://cdn.cliqz.com/adblocker/resources/ublock-filters-2020/357b260997b63bc9153e566acfbf129c46cd50cfa87891cb842638de7aa9cabf/diffs/c85e02275f1a4362989bac3bdd6cfa5215d9d3ddc9625eec58dd36b3df2628ad",
                "e12ffe587ecc4a1cfde85b543d66955ec282109c162202f68b9d5828c9ddc48a": "https://cdn.cliqz.com/adblocker/resources/ublock-filters-2020/357b260997b63bc9153e566acfbf129c46cd50cfa87891cb842638de7aa9cabf/diffs/e12ffe587ecc4a1cfde85b543d66955ec282109c162202f68b9d5828c9ddc48a",
                "729c3778cff842c6f2ef39326043cabf1993b56e9d3837879b905ed849e63db5": "https://cdn.cliqz.com/adblocker/resources/ublock-filters-2020/357b260997b63bc9153e566acfbf129c46cd50cfa87891cb842638de7aa9cabf/diffs/729c3778cff842c6f2ef39326043cabf1993b56e9d3837879b905ed849e63db5"
            }
        },
        "ublock-unbreak": {
            "url": "https://cdn.cliqz.com/adblocker/resources/ublock-unbreak/837934f6f38c2d6958801ce5f915eecbef1cdf62adea45a004f03f645e85f644/list.txt",
            "checksum": "837934f6f38c2d6958801ce5f915eecbef1cdf62adea45a004f03f645e85f644",
            "diffs": {
                "7754191594284e94c8b56fea2f2c1372dda8bea0ea711169cbe937210bdc58a0": "https://cdn.cliqz.com/adblocker/resources/ublock-unbreak/837934f6f38c2d6958801ce5f915eecbef1cdf62adea45a004f03f645e85f644/diffs/7754191594284e94c8b56fea2f2c1372dda8bea0ea711169cbe937210bdc58a0",
                "3f2025e3c29712c8c10385ed07bec81a96096f6345aecff5a5b4e93135a2a4cf": "https://cdn.cliqz.com/adblocker/resources/ublock-unbreak/837934f6f38c2d6958801ce5f915eecbef1cdf62adea45a004f03f645e85f644/diffs/3f2025e3c29712c8c10385ed07bec81a96096f6345aecff5a5b4e93135a2a4cf",
                "e48f4d841ec32d52da62ce31b923e5da40ed8fa754af6aeae096069f8f5c8499": "https://cdn.cliqz.com/adblocker/resources/ublock-unbreak/837934f6f38c2d6958801ce5f915eecbef1cdf62adea45a004f03f645e85f644/diffs/e48f4d841ec32d52da62ce31b923e5da40ed8fa754af6aeae096069f8f5c8499",
                "24990a7260a995df6f66c05670dccd2a8453eecbf05fe691b5dbbc9e9708cd06": "https://cdn.cliqz.com/adblocker/resources/ublock-unbreak/837934f6f38c2d6958801ce5f915eecbef1cdf62adea45a004f03f645e85f644/diffs/24990a7260a995df6f66c05670dccd2a8453eecbf05fe691b5dbbc9e9708cd06",
                "a0ed632352fce1834bb08f45d78855ff828e0cd7e7bb4cfb89e0a24b4850e6a7": "https://cdn.cliqz.com/adblocker/resources/ublock-unbreak/837934f6f38c2d6958801ce5f915eecbef1cdf62adea45a004f03f645e85f644/diffs/a0ed632352fce1834bb08f45d78855ff828e0cd7e7bb4cfb89e0a24b4850e6a7",
                "f54fd304bceb6cba3564d22b30decf30669c6ebc862e2f58064674c36704caf5": "https://cdn.cliqz.com/adblocker/resources/ublock-unbreak/837934f6f38c2d6958801ce5f915eecbef1cdf62adea45a004f03f645e85f644/diffs/f54fd304bceb6cba3564d22b30decf30669c6ebc862e2f58064674c36704caf5",
                "01255ddcb165292200d7973e6e87ccadf02aaf490b61c084e262434f901bedab": "https://cdn.cliqz.com/adblocker/resources/ublock-unbreak/837934f6f38c2d6958801ce5f915eecbef1cdf62adea45a004f03f645e85f644/diffs/01255ddcb165292200d7973e6e87ccadf02aaf490b61c084e262434f901bedab"
            }
        },
        "french-filters": {
            "lang": "ar fr",
            "url": "https://cdn.cliqz.com/adblocker/resources/french-filters/528926814755be6d599a2e3228a8e4ccc37d4e90875bfd54584249a64c1fc76b/list.txt",
            "checksum": "528926814755be6d599a2e3228a8e4ccc37d4e90875bfd54584249a64c1fc76b",
            "diffs": {
                "8287a860c692e9bc61bdf10254908b141055e8eeb6bf037e5fc12a34da0962d9": "https://cdn.cliqz.com/adblocker/resources/french-filters/528926814755be6d599a2e3228a8e4ccc37d4e90875bfd54584249a64c1fc76b/diffs/8287a860c692e9bc61bdf10254908b141055e8eeb6bf037e5fc12a34da0962d9",
                "f55a754b3bc9a9bde89f8ffdfcace523c78e5b37a6cc6a78374585a1f2983512": "https://cdn.cliqz.com/adblocker/resources/french-filters/528926814755be6d599a2e3228a8e4ccc37d4e90875bfd54584249a64c1fc76b/diffs/f55a754b3bc9a9bde89f8ffdfcace523c78e5b37a6cc6a78374585a1f2983512",
                "2c2f222b332127dfb64912758ce65de4dbc0968985cf752b283920d170ecb6bc": "https://cdn.cliqz.com/adblocker/resources/french-filters/528926814755be6d599a2e3228a8e4ccc37d4e90875bfd54584249a64c1fc76b/diffs/2c2f222b332127dfb64912758ce65de4dbc0968985cf752b283920d170ecb6bc",
                "58a33158528a440fd228795919b58389abd96099dfee8b96f58da1c0a18a4790": "https://cdn.cliqz.com/adblocker/resources/french-filters/528926814755be6d599a2e3228a8e4ccc37d4e90875bfd54584249a64c1fc76b/diffs/58a33158528a440fd228795919b58389abd96099dfee8b96f58da1c0a18a4790",
                "8c18255c654cc4287727c0ee67aa846a63554eab418f8ada08652044e26e51f7": "https://cdn.cliqz.com/adblocker/resources/french-filters/528926814755be6d599a2e3228a8e4ccc37d4e90875bfd54584249a64c1fc76b/diffs/8c18255c654cc4287727c0ee67aa846a63554eab418f8ada08652044e26e51f7",
                "6647bab0fbf3bfd86c3665edbfcb0f4e61f7be497c16a376c3530a2d23f99547": "https://cdn.cliqz.com/adblocker/resources/french-filters/528926814755be6d599a2e3228a8e4ccc37d4e90875bfd54584249a64c1fc76b/diffs/6647bab0fbf3bfd86c3665edbfcb0f4e61f7be497c16a376c3530a2d23f99547",
                "406fd01836d646a09045af4bb33359d106e9378695782304d69f6598aef1574c": "https://cdn.cliqz.com/adblocker/resources/french-filters/528926814755be6d599a2e3228a8e4ccc37d4e90875bfd54584249a64c1fc76b/diffs/406fd01836d646a09045af4bb33359d106e9378695782304d69f6598aef1574c"
            }
        },
        "german-filters": {
            "lang": "de",
            "url": "https://cdn.cliqz.com/adblocker/resources/german-filters/21af02f3e8d14fc438205dd6d2c5fb2ba984c9c5d8992c091b92735c36029838/list.txt",
            "checksum": "21af02f3e8d14fc438205dd6d2c5fb2ba984c9c5d8992c091b92735c36029838",
            "diffs": {
                "744637dbc542703654958072a634cf5848ab68eea7d1c3a66eabc7f0f6f89e6b": "https://cdn.cliqz.com/adblocker/resources/german-filters/21af02f3e8d14fc438205dd6d2c5fb2ba984c9c5d8992c091b92735c36029838/diffs/744637dbc542703654958072a634cf5848ab68eea7d1c3a66eabc7f0f6f89e6b",
                "c252bf25b7b0b39475318bd9b1b51949974e60eb0ae65ca2feff95bb374c4552": "https://cdn.cliqz.com/adblocker/resources/german-filters/21af02f3e8d14fc438205dd6d2c5fb2ba984c9c5d8992c091b92735c36029838/diffs/c252bf25b7b0b39475318bd9b1b51949974e60eb0ae65ca2feff95bb374c4552",
                "04ddad15b600b48474eb5f0734482c01cb223fc8f7daf7c7b12f5cbf15b86467": "https://cdn.cliqz.com/adblocker/resources/german-filters/21af02f3e8d14fc438205dd6d2c5fb2ba984c9c5d8992c091b92735c36029838/diffs/04ddad15b600b48474eb5f0734482c01cb223fc8f7daf7c7b12f5cbf15b86467",
                "4bee2b85912e1e7b9eb20cc87bf9d976866da2ee724dae342f0e92b8d0a4d77e": "https://cdn.cliqz.com/adblocker/resources/german-filters/21af02f3e8d14fc438205dd6d2c5fb2ba984c9c5d8992c091b92735c36029838/diffs/4bee2b85912e1e7b9eb20cc87bf9d976866da2ee724dae342f0e92b8d0a4d77e",
                "b514831ce0dabd714974804d4b14991e9d360301034b6e0aa576ce448ea7c131": "https://cdn.cliqz.com/adblocker/resources/german-filters/21af02f3e8d14fc438205dd6d2c5fb2ba984c9c5d8992c091b92735c36029838/diffs/b514831ce0dabd714974804d4b14991e9d360301034b6e0aa576ce448ea7c131",
                "9d6c820af097d91896160eb1bb459b45a7e778da9345f150825db43a0b42b738": "https://cdn.cliqz.com/adblocker/resources/german-filters/21af02f3e8d14fc438205dd6d2c5fb2ba984c9c5d8992c091b92735c36029838/diffs/9d6c820af097d91896160eb1bb459b45a7e778da9345f150825db43a0b42b738",
                "fc10eebf08c8e77a38fae6c10cb2b73df3d6938bca16c5cacd31fdf01958c4ba": "https://cdn.cliqz.com/adblocker/resources/german-filters/21af02f3e8d14fc438205dd6d2c5fb2ba984c9c5d8992c091b92735c36029838/diffs/fc10eebf08c8e77a38fae6c10cb2b73df3d6938bca16c5cacd31fdf01958c4ba"
            }
        },
        "greek-filters": {
            "lang": "el",
            "url": "https://cdn.cliqz.com/adblocker/resources/greek-filters/791de83fa47111e0b7555b5e81b9b1278ae2518be250f8093a01677101698b85/list.txt",
            "checksum": "791de83fa47111e0b7555b5e81b9b1278ae2518be250f8093a01677101698b85",
            "diffs": {
                "52d6c6a07c0efe70908037d2bc098f2ed9270cae4ce7de7442c3f0b0d1f2881a": "https://cdn.cliqz.com/adblocker/resources/greek-filters/791de83fa47111e0b7555b5e81b9b1278ae2518be250f8093a01677101698b85/diffs/52d6c6a07c0efe70908037d2bc098f2ed9270cae4ce7de7442c3f0b0d1f2881a",
                "0ba44041d0b126ac66c8aa52c8d52ece429ce9e16e492523cbe07329139c0fa2": "https://cdn.cliqz.com/adblocker/resources/greek-filters/791de83fa47111e0b7555b5e81b9b1278ae2518be250f8093a01677101698b85/diffs/0ba44041d0b126ac66c8aa52c8d52ece429ce9e16e492523cbe07329139c0fa2",
                "ed49fcd7f09ff32e0aded9039d6dc1562388b81a91f034d4eb955db6b0994e2f": "https://cdn.cliqz.com/adblocker/resources/greek-filters/791de83fa47111e0b7555b5e81b9b1278ae2518be250f8093a01677101698b85/diffs/ed49fcd7f09ff32e0aded9039d6dc1562388b81a91f034d4eb955db6b0994e2f",
                "7d921b2487316da7940bdbe4bba7feca41cbd68b469211ce973700ea224fb06e": "https://cdn.cliqz.com/adblocker/resources/greek-filters/791de83fa47111e0b7555b5e81b9b1278ae2518be250f8093a01677101698b85/diffs/7d921b2487316da7940bdbe4bba7feca41cbd68b469211ce973700ea224fb06e",
                "00ef5cd3dcbcad43115eb42bee28f755cd3cced3d0980df201a14e97fc3ebbad": "https://cdn.cliqz.com/adblocker/resources/greek-filters/791de83fa47111e0b7555b5e81b9b1278ae2518be250f8093a01677101698b85/diffs/00ef5cd3dcbcad43115eb42bee28f755cd3cced3d0980df201a14e97fc3ebbad",
                "cec9a5648feb951c6da9cf08a5b83a4298dcb5ffee82b532478486070475f40f": "https://cdn.cliqz.com/adblocker/resources/greek-filters/791de83fa47111e0b7555b5e81b9b1278ae2518be250f8093a01677101698b85/diffs/cec9a5648feb951c6da9cf08a5b83a4298dcb5ffee82b532478486070475f40f",
                "069e589b2d44455a4976838e8db51e622d225276b9fdb31d1bd1cb3c7b98af3d": "https://cdn.cliqz.com/adblocker/resources/greek-filters/791de83fa47111e0b7555b5e81b9b1278ae2518be250f8093a01677101698b85/diffs/069e589b2d44455a4976838e8db51e622d225276b9fdb31d1bd1cb3c7b98af3d"
            }
        },
        "italy-filters": {
            "lang": "it",
            "url": "https://cdn.cliqz.com/adblocker/resources/italy-filters/f9c1c180f52042c8d4307ba15e973fdc8ee94bbcf29de5f4230294c6f84aec6b/list.txt",
            "checksum": "f9c1c180f52042c8d4307ba15e973fdc8ee94bbcf29de5f4230294c6f84aec6b",
            "diffs": {
                "e66f6bb5532d6db2b6377f4de3274ce6492c33e2f548ee17bd73db588cf03947": "https://cdn.cliqz.com/adblocker/resources/italy-filters/f9c1c180f52042c8d4307ba15e973fdc8ee94bbcf29de5f4230294c6f84aec6b/diffs/e66f6bb5532d6db2b6377f4de3274ce6492c33e2f548ee17bd73db588cf03947",
                "22b4d12bab22159b767af2da21d804cc723418f7616f00ada960ed7fdcec64f8": "https://cdn.cliqz.com/adblocker/resources/italy-filters/f9c1c180f52042c8d4307ba15e973fdc8ee94bbcf29de5f4230294c6f84aec6b/diffs/22b4d12bab22159b767af2da21d804cc723418f7616f00ada960ed7fdcec64f8",
                "f1f0d95db021249a93a69a3f83fd9066cbdaf231485f3e2bfb43595c8fd4d9a9": "https://cdn.cliqz.com/adblocker/resources/italy-filters/f9c1c180f52042c8d4307ba15e973fdc8ee94bbcf29de5f4230294c6f84aec6b/diffs/f1f0d95db021249a93a69a3f83fd9066cbdaf231485f3e2bfb43595c8fd4d9a9",
                "8ac159d801355367fb6b72661a923fe45bd47a746988711501deb486791100c6": "https://cdn.cliqz.com/adblocker/resources/italy-filters/f9c1c180f52042c8d4307ba15e973fdc8ee94bbcf29de5f4230294c6f84aec6b/diffs/8ac159d801355367fb6b72661a923fe45bd47a746988711501deb486791100c6",
                "615f2d8e4b1714386f3629dedd301dcfa2b0935bb7e5bf082e1cb190c31ac402": "https://cdn.cliqz.com/adblocker/resources/italy-filters/f9c1c180f52042c8d4307ba15e973fdc8ee94bbcf29de5f4230294c6f84aec6b/diffs/615f2d8e4b1714386f3629dedd301dcfa2b0935bb7e5bf082e1cb190c31ac402",
                "1b8ccc2b6eebbe38dc0859fcbfcb732f7e31d8630c39e41762ef126f41e339fe": "https://cdn.cliqz.com/adblocker/resources/italy-filters/f9c1c180f52042c8d4307ba15e973fdc8ee94bbcf29de5f4230294c6f84aec6b/diffs/1b8ccc2b6eebbe38dc0859fcbfcb732f7e31d8630c39e41762ef126f41e339fe",
                "85b30e0c89addcac48bc42c24fac5fc02fa16e111d682c8b15afe1297e58e345": "https://cdn.cliqz.com/adblocker/resources/italy-filters/f9c1c180f52042c8d4307ba15e973fdc8ee94bbcf29de5f4230294c6f84aec6b/diffs/85b30e0c89addcac48bc42c24fac5fc02fa16e111d682c8b15afe1297e58e345"
            }
        },
        "turkey-filters": {
            "lang": "tr",
            "url": "https://cdn.cliqz.com/adblocker/resources/turkey-filters/e7117c93280c34ca60ca3b2120bff02eeeccaa147db57dd3ee8b1a1587ba7ff0/list.txt",
            "checksum": "e7117c93280c34ca60ca3b2120bff02eeeccaa147db57dd3ee8b1a1587ba7ff0",
            "diffs": {
                "df99a3fc4312012b28c47c0e72028720c50f7b0e98379b417e1e59d3964df951": "https://cdn.cliqz.com/adblocker/resources/turkey-filters/e7117c93280c34ca60ca3b2120bff02eeeccaa147db57dd3ee8b1a1587ba7ff0/diffs/df99a3fc4312012b28c47c0e72028720c50f7b0e98379b417e1e59d3964df951",
                "5950f15d62d7bad484bfade2505a1147f2f99bd35560378c2b5f3da333a739f5": "https://cdn.cliqz.com/adblocker/resources/turkey-filters/e7117c93280c34ca60ca3b2120bff02eeeccaa147db57dd3ee8b1a1587ba7ff0/diffs/5950f15d62d7bad484bfade2505a1147f2f99bd35560378c2b5f3da333a739f5",
                "a794df105d3525cd9faceee18b30249987fca0d6ec6579930e73213dc842ebf4": "https://cdn.cliqz.com/adblocker/resources/turkey-filters/e7117c93280c34ca60ca3b2120bff02eeeccaa147db57dd3ee8b1a1587ba7ff0/diffs/a794df105d3525cd9faceee18b30249987fca0d6ec6579930e73213dc842ebf4",
                "fb0251fedc9c67fbf14919a1c2f29d342fed4c39f1814241f44994146a010bdb": "https://cdn.cliqz.com/adblocker/resources/turkey-filters/e7117c93280c34ca60ca3b2120bff02eeeccaa147db57dd3ee8b1a1587ba7ff0/diffs/fb0251fedc9c67fbf14919a1c2f29d342fed4c39f1814241f44994146a010bdb",
                "915f114a6555412ebbf4f817701f2133a3112abd9c64d5e8417c1a555af52910": "https://cdn.cliqz.com/adblocker/resources/turkey-filters/e7117c93280c34ca60ca3b2120bff02eeeccaa147db57dd3ee8b1a1587ba7ff0/diffs/915f114a6555412ebbf4f817701f2133a3112abd9c64d5e8417c1a555af52910",
                "9b1b7d35a96ea2da1aae0eaa9840f30ac9a5d7ad617ec1c0184af3ce6bea45dd": "https://cdn.cliqz.com/adblocker/resources/turkey-filters/e7117c93280c34ca60ca3b2120bff02eeeccaa147db57dd3ee8b1a1587ba7ff0/diffs/9b1b7d35a96ea2da1aae0eaa9840f30ac9a5d7ad617ec1c0184af3ce6bea45dd",
                "85cf10f1ec60187a5403380549fd2fa204845c788dba50524ab8a07d7e6a3b15": "https://cdn.cliqz.com/adblocker/resources/turkey-filters/e7117c93280c34ca60ca3b2120bff02eeeccaa147db57dd3ee8b1a1587ba7ff0/diffs/85cf10f1ec60187a5403380549fd2fa204845c788dba50524ab8a07d7e6a3b15"
            }
        },
        "russian-filters": {
            "lang": "ru uk",
            "url": "https://cdn.cliqz.com/adblocker/resources/russian-filters/28aad7e590873ed74d3b5f5342712c6d3724e5846a9e0635f3674fae30df53ef/list.txt",
            "checksum": "28aad7e590873ed74d3b5f5342712c6d3724e5846a9e0635f3674fae30df53ef",
            "diffs": {
                "cd60698c90cb14786e4fd04857a191a92e16a2ce5aaf88c97d01c1d7036aa117": "https://cdn.cliqz.com/adblocker/resources/russian-filters/28aad7e590873ed74d3b5f5342712c6d3724e5846a9e0635f3674fae30df53ef/diffs/cd60698c90cb14786e4fd04857a191a92e16a2ce5aaf88c97d01c1d7036aa117",
                "d55860f592155c86ad48e1b07fd4fbd0f03cd96b37af4a751edbd4982e8963d6": "https://cdn.cliqz.com/adblocker/resources/russian-filters/28aad7e590873ed74d3b5f5342712c6d3724e5846a9e0635f3674fae30df53ef/diffs/d55860f592155c86ad48e1b07fd4fbd0f03cd96b37af4a751edbd4982e8963d6",
                "f02e478e26596d21ec22deb76b353370a3e4d945546e9578eb9d887ca18260ab": "https://cdn.cliqz.com/adblocker/resources/russian-filters/28aad7e590873ed74d3b5f5342712c6d3724e5846a9e0635f3674fae30df53ef/diffs/f02e478e26596d21ec22deb76b353370a3e4d945546e9578eb9d887ca18260ab",
                "63ae8ccda738f81e49529a7dfbf8e875a7d60c11f1cb7c125cf3fdabb48b0fd6": "https://cdn.cliqz.com/adblocker/resources/russian-filters/28aad7e590873ed74d3b5f5342712c6d3724e5846a9e0635f3674fae30df53ef/diffs/63ae8ccda738f81e49529a7dfbf8e875a7d60c11f1cb7c125cf3fdabb48b0fd6",
                "ec02363e04f32f5097df8f16613baf16494e3d1c75a8dadb0a7bd89608da569a": "https://cdn.cliqz.com/adblocker/resources/russian-filters/28aad7e590873ed74d3b5f5342712c6d3724e5846a9e0635f3674fae30df53ef/diffs/ec02363e04f32f5097df8f16613baf16494e3d1c75a8dadb0a7bd89608da569a",
                "ce28c1e73235cad258f7411375a437ed20a43806b8c9b5485f2fbcc10e3f1bee": "https://cdn.cliqz.com/adblocker/resources/russian-filters/28aad7e590873ed74d3b5f5342712c6d3724e5846a9e0635f3674fae30df53ef/diffs/ce28c1e73235cad258f7411375a437ed20a43806b8c9b5485f2fbcc10e3f1bee",
                "38e480499c5df67b3eaa028d5a63e9feed7de06be76be3a84f041cc58d4dc5fd": "https://cdn.cliqz.com/adblocker/resources/russian-filters/28aad7e590873ed74d3b5f5342712c6d3724e5846a9e0635f3674fae30df53ef/diffs/38e480499c5df67b3eaa028d5a63e9feed7de06be76be3a84f041cc58d4dc5fd"
            }
        },
        "ublock-privacy": {
            "url": "https://cdn.cliqz.com/adblocker/resources/ublock-privacy/53fc0b90afddd465e22f509197a7c389e5573e354033a2110b67a2d9b64dd318/list.txt",
            "checksum": "53fc0b90afddd465e22f509197a7c389e5573e354033a2110b67a2d9b64dd318",
            "diffs": {
                "787acf8d78d4cd843e585f45b309020231f805435160e7038dfcea52ac63d980": "https://cdn.cliqz.com/adblocker/resources/ublock-privacy/53fc0b90afddd465e22f509197a7c389e5573e354033a2110b67a2d9b64dd318/diffs/787acf8d78d4cd843e585f45b309020231f805435160e7038dfcea52ac63d980",
                "68f9726c9ae02b3f41ffbc50b77f5878e58526ae7816ebdb76c90ed79d3bc60e": "https://cdn.cliqz.com/adblocker/resources/ublock-privacy/53fc0b90afddd465e22f509197a7c389e5573e354033a2110b67a2d9b64dd318/diffs/68f9726c9ae02b3f41ffbc50b77f5878e58526ae7816ebdb76c90ed79d3bc60e",
                "e852f83f09da5c8b2a0cb0ae7fa847de87d69f45e41481aabfe8a411c57d6bf1": "https://cdn.cliqz.com/adblocker/resources/ublock-privacy/53fc0b90afddd465e22f509197a7c389e5573e354033a2110b67a2d9b64dd318/diffs/e852f83f09da5c8b2a0cb0ae7fa847de87d69f45e41481aabfe8a411c57d6bf1",
                "43b51a3a975e5e8201b577ec10e99a7b0438b42ebcb16a08b95eddd13cb5045b": "https://cdn.cliqz.com/adblocker/resources/ublock-privacy/53fc0b90afddd465e22f509197a7c389e5573e354033a2110b67a2d9b64dd318/diffs/43b51a3a975e5e8201b577ec10e99a7b0438b42ebcb16a08b95eddd13cb5045b",
                "fe97130e6503cdcee85fadce8749627dd43347ee32324ffad35f13f0b4a3bf97": "https://cdn.cliqz.com/adblocker/resources/ublock-privacy/53fc0b90afddd465e22f509197a7c389e5573e354033a2110b67a2d9b64dd318/diffs/fe97130e6503cdcee85fadce8749627dd43347ee32324ffad35f13f0b4a3bf97",
                "96488891527ef08861c69fd712a3ec389b389eb24f8c0d95b634bc11ed575c25": "https://cdn.cliqz.com/adblocker/resources/ublock-privacy/53fc0b90afddd465e22f509197a7c389e5573e354033a2110b67a2d9b64dd318/diffs/96488891527ef08861c69fd712a3ec389b389eb24f8c0d95b634bc11ed575c25",
                "3240ad24140e1a3388d427e34a2537f93afb5e124cab00a72ab73cda2a7f289d": "https://cdn.cliqz.com/adblocker/resources/ublock-privacy/53fc0b90afddd465e22f509197a7c389e5573e354033a2110b67a2d9b64dd318/diffs/3240ad24140e1a3388d427e34a2537f93afb5e124cab00a72ab73cda2a7f289d"
            }
        },
        "1p-filters": {
            "url": "https://cdn.cliqz.com/adblocker/resources/1p-filters/72e042c74aea5150698bf18afdd2e6de9895e062f186498b95cbb3fdd4699eb1/list.txt",
            "checksum": "72e042c74aea5150698bf18afdd2e6de9895e062f186498b95cbb3fdd4699eb1",
            "diffs": {}
        },
        "easyprivacy": {
            "url": "https://cdn.cliqz.com/adblocker/resources/easyprivacy/42f0339fb983f61a1df63c9cc1f373ce801fa3b0c932373ac135dd76b1854efc/list.txt",
            "checksum": "42f0339fb983f61a1df63c9cc1f373ce801fa3b0c932373ac135dd76b1854efc",
            "diffs": {
                "a9a47be41b757639143c808db6c2317fa0a8a897269ffe8ed07e98ab40f7feee": "https://cdn.cliqz.com/adblocker/resources/easyprivacy/42f0339fb983f61a1df63c9cc1f373ce801fa3b0c932373ac135dd76b1854efc/diffs/a9a47be41b757639143c808db6c2317fa0a8a897269ffe8ed07e98ab40f7feee",
                "463e8ad684475949328e3ac7d765116bd7c291e4d0f6d4e4a72e1dd384ff066a": "https://cdn.cliqz.com/adblocker/resources/easyprivacy/42f0339fb983f61a1df63c9cc1f373ce801fa3b0c932373ac135dd76b1854efc/diffs/463e8ad684475949328e3ac7d765116bd7c291e4d0f6d4e4a72e1dd384ff066a",
                "694bfa06ebc4f3a60fa6894f43c5216cb8855180f197cf2ec313efc445e3fbfb": "https://cdn.cliqz.com/adblocker/resources/easyprivacy/42f0339fb983f61a1df63c9cc1f373ce801fa3b0c932373ac135dd76b1854efc/diffs/694bfa06ebc4f3a60fa6894f43c5216cb8855180f197cf2ec313efc445e3fbfb",
                "3a70d0ab0e4f4b2cebaa8b39e79ebad854389a193c7e2c03dd4b5c55fc68e3e6": "https://cdn.cliqz.com/adblocker/resources/easyprivacy/42f0339fb983f61a1df63c9cc1f373ce801fa3b0c932373ac135dd76b1854efc/diffs/3a70d0ab0e4f4b2cebaa8b39e79ebad854389a193c7e2c03dd4b5c55fc68e3e6",
                "a392f989cc84903d4d6a96358f333f1a5ed690920de9a604d303cc2d533de8f9": "https://cdn.cliqz.com/adblocker/resources/easyprivacy/42f0339fb983f61a1df63c9cc1f373ce801fa3b0c932373ac135dd76b1854efc/diffs/a392f989cc84903d4d6a96358f333f1a5ed690920de9a604d303cc2d533de8f9",
                "75bbb7f9e6f978125c74726799b92f12b8eb81db489460d8431d79507bc8bc49": "https://cdn.cliqz.com/adblocker/resources/easyprivacy/42f0339fb983f61a1df63c9cc1f373ce801fa3b0c932373ac135dd76b1854efc/diffs/75bbb7f9e6f978125c74726799b92f12b8eb81db489460d8431d79507bc8bc49",
                "f5a5d45c8baff7435beeeaa2003238df79204e452ec1e78f9eecf982708c2b4e": "https://cdn.cliqz.com/adblocker/resources/easyprivacy/42f0339fb983f61a1df63c9cc1f373ce801fa3b0c932373ac135dd76b1854efc/diffs/f5a5d45c8baff7435beeeaa2003238df79204e452ec1e78f9eecf982708c2b4e"
            }
        }
    },
    "resources": {
        "url": "https://cdn.cliqz.com/adblocker/resources/ublock-resources/78ca65dc81beddf4efb9d6fedd82997bd7bf326a89e76a85cf9b4f45fb046d5c/list.txt",
        "checksum": "78ca65dc81beddf4efb9d6fedd82997bd7bf326a89e76a85cf9b4f45fb046d5c"
    }
}